…
``` r
load("Results/210301_delta_detected_GPP_log.RData")
df_delta_detected |> 
    # only selecting one ews here ac1, but there is 5, just for nice printing
    select(n_ews, ews_delta_ac1, value_delta_ac1, biome) 
```

    ## Adding missing grouping variables: `lon`, `lat`

    ## # A tibble: 210,771 × 6
    ## # Groups:   lon, lat, biome [210,771]
    ##      lon    lat n_ews ews_delta_ac1 value_delta_ac1 biome                       
    ##    <dbl>  <dbl> <int> <lgl>                   <dbl> <fct>                       
    ##  1 -91.4 -0.125     1 FALSE                 -0.0991 Deserts and Xeric Shrublands
    ##  2 -90.9 -0.125     0 FALSE                  0.132  <NA>                        
    ##  3 -90.6 -0.125     0 FALSE                 -0.137  <NA>                        
    ##  4 -80.4 -0.125     0 FALSE                 -0.0638 <NA>                        
    ##  5 -80.1 -0.125     0 FALSE                 -0.0897 Tropical and Subtropical Dr…
    ##  6 -79.6 -0.125     0 FALSE                  0.0657 Tropical and Subtropical Mo…
    ##  7 -79.1 -0.125     0 FALSE                 -0.119  Tropical and Subtropical Mo…
    ##  8 -78.9 -0.125     1 TRUE                  -0.158  Tropical and Subtropical Mo…
    ##  9 -78.6 -0.125     0 FALSE                 -0.0629 Montane Grasslands and Shru…
    ## 10 -78.4 -0.125     0 FALSE                  0.0609 Tropical and Subtropical Mo…
    ## # ℹ 210,761 more rows
…
